%YAML 1.1
%TAG !u! tag:unity3d.com,2011:
--- !u!687078895 &4343727234628468602
SpriteAtlas:
  m_ObjectHideFlags: 0
  m_PrefabParentObject: {fileID: 0}
  m_PrefabInternal: {fileID: 0}
  m_Name: Sprite Atlas
  m_EditorData:
    textureSettings:
      serializedVersion: 2
      anisoLevel: 1
      compressionQuality: 50
      maxTextureSize: 1024
      textureCompression: 0
      filterMode: 1
      generateMipMaps: 0
      readable: 0
      crunchedCompression: 0
      sRGB: 1
    platformSettings: []
    packingParameters:
      serializedVersion: 2
      padding: 2
      blockOffset: 1
      allowAlphaSplitting: 0
      enableRotation: 1
      enableTightPacking: 0
    variantMultiplier: 1
    packables:
    - {fileID: 102900000, guid: 10844dded94caa743a724955c90040f0, type: 3}
    bindAsDefault: 1
  m_MasterAtlas: {fileID: 0}
  m_PackedSprites:
  - {fileID: 21300000, guid: 575f1ea4395f31c47953a21498a510d2, type: 3}
  - {fileID: 21300000, guid: f6f7f102029a5f84285a52d7efca280b, type: 3}
  - {fileID: 21300000, guid: aa83240b32591ea49afe02f7b3bb9566, type: 3}
  - {fileID: 21300000, guid: 0f6813bad6dd15543962e4ea75daca13, type: 3}
  - {fileID: 21300000, guid: 4a0f685a5a8175847b585168483f5eeb, type: 3}
  - {fileID: 21300000, guid: 767ae6cdd6177434299c28d4f786ea98, type: 3}
  - {fileID: 21300000, guid: 70ec1ad291055ca4dbc0904b9de26a2f, type: 3}
  - {fileID: 21300000, guid: e50eb6ee89a6b5541b98409dd78360c5, type: 3}
  - {fileID: 21300000, guid: 0a8850b891f5f8742b0a1c6625ee8602, type: 3}
  - {fileID: 21300000, guid: 76950dc0eee618641bc1be2b1646c44f, type: 3}
  - {fileID: 21300000, guid: bb66d1f35fcf7a6438bd841455ac4c1d, type: 3}
  - {fileID: 21300000, guid: 65cd8233e98614c44a3eb3a704b84c15, type: 3}
  m_PackedSpriteNamesToIndex:
  - Vector Smart Object 1
  - menu
  - play
  - icon
  - Vector Smart Object
  - facebook_like
  - Play Ball2
  - X3_front-m-2 copy
  - X4-front-2 copy
  - disto copy 4
  - Background
  - Header Line
  m_Tag: Sprite Atlas
  m_IsVariant: 0
